<svg width="54" height="15" viewBox="0 0 54 15" fill="none" xmlns="http://www.w3.org/2000/svg">
<path d="M29.3281 11.6519V12.6519H30.3281H36.3505H38.1224H38.4249H39.1224H41.391H41.8961L42.1958 12.2454L43.593 10.3508L45.0322 12.2549L45.3322 12.6519H45.8299H48.8387H50.8996L49.6243 11.0331L46.3119 6.82858L49.654 2.62207L50.9428 1H48.871H45.9796H45.487L45.1868 1.39052L43.6592 3.37768L42.1377 1.39182L41.8375 1H41.3439H39.1224H38.3346H38.1224H36.2616H30.3281H29.3281V2V11.6519ZM39.1224 4.59722L40.942 6.88513L39.1224 9.17042V8.55643H38.9967V7.84194V5.80997V5.15898H39.1224V4.59722Z" fill="white" stroke="#D7D7D7" stroke-width="2"/>
<path d="M8.13012 1.00161H7.47032L7.21075 1.60821L3.08063 11.2601L2.48439 12.6535H4H6.68892H7.36956L7.61922 12.0203L8.13161 10.7208H11.1992L11.7083 12.0187L11.9574 12.6535H12.6393H15.3874H16.9025L16.9018 12.6519H18.0734H19.0734V11.6519V10.2879L19.684 11.9896L19.9216 12.6519H20.6253H22.7306H23.4349L23.6722 11.9888L24.2754 10.3029V11.6519V12.6519H25.2754H27.6761H28.6761V11.6519V2V1H27.6761H23.8856H23.1746L22.941 1.67151L21.7038 5.22897L20.4356 1.67793L20.1995 1.0169L19.4975 1.01427L15.6764 1.00001L14.6727 0.996259V2V7.43766L12.1808 1.60853L11.9213 1.00161H11.2613H8.13012Z" fill="white" stroke="#D7D7D7" stroke-width="2"/>
</svg>
