<svg width="34" height="34" viewBox="0 0 34 34" fill="none" xmlns="http://www.w3.org/2000/svg">
<path d="M4.45157 12.5983H29.5484" stroke="#151515" stroke-width="2" stroke-miterlimit="10" stroke-linecap="round" stroke-linejoin="round"/>
<path d="M9.46159 22.6492L11.9818 22.6492" stroke="#151515" stroke-width="2" stroke-miterlimit="10" stroke-linecap="round" stroke-linejoin="round"/>
<path d="M15.1134 22.6504H20.1327" stroke="#151515" stroke-width="2" stroke-miterlimit="10" stroke-linecap="round" stroke-linejoin="round"/>
<path d="M10.0314 6.33237L23.9764 6.33237C28.4288 6.33237 29.5524 7.43495 29.5524 11.8453L29.5524 22.157C29.5524 26.5674 28.4288 27.67 23.9764 27.67L10.0314 27.67C5.57907 27.67 4.45549 26.5674 4.45549 22.157L4.45549 11.8453C4.45549 7.43495 5.55807 6.33237 10.0314 6.33237Z" stroke="#151515" stroke-width="2" stroke-linecap="round" stroke-linejoin="round"/>
</svg>
