<svg width="43" height="14" viewBox="0 0 43 14" fill="none" xmlns="http://www.w3.org/2000/svg">
<g clip-path="url(#clip0_1555_7920)">
<path d="M28.0012 0.0215454C24.9512 0.0215454 22.2254 1.60705 22.2254 4.53571C22.2254 7.89471 27.0595 8.12669 27.0595 9.81439C27.0595 10.525 26.2476 11.161 24.8604 11.161C22.8923 11.161 21.4213 10.2723 21.4213 10.2723L20.7918 13.2281C20.7918 13.2281 22.4864 13.9789 24.7362 13.9789C28.0708 13.9789 30.6951 12.3157 30.6951 9.33663C30.6951 5.78704 25.8408 5.56195 25.8408 3.99586C25.8408 3.43919 26.5073 2.82948 27.8902 2.82948C29.4507 2.82948 30.7235 3.47584 30.7235 3.47584L31.3397 0.621336C31.3397 0.621336 29.9542 0.0215454 28.0007 0.0215454H28.0012ZM0.0954444 0.237142L0.0214844 0.667905C0.0214844 0.667905 1.3046 0.903337 2.46044 1.37334C3.94867 1.9119 4.05445 2.22581 4.30514 3.19944L7.03607 13.7564H10.6971L16.337 0.237142H12.6846L9.06052 9.4289L7.58175 1.63723C7.44629 0.74552 6.75915 0.236711 5.9185 0.236711H0.0958744L0.0954444 0.237142ZM17.8059 0.237142L14.9408 13.7564H18.4238L21.2785 0.237142H17.8059ZM37.2315 0.237142C36.3917 0.237142 35.9467 0.688171 35.6203 1.47596L30.5175 13.7564H34.1699L34.8764 11.7095H39.3261L39.7556 13.7564H42.9785L40.1671 0.237142H37.2315ZM37.7067 3.88978L38.7894 8.96278H35.8891L37.7071 3.88978H37.7067Z" fill="#D7D7D7"/>
</g>
<defs>
<clipPath id="clip0_1555_7920">
<rect width="43" height="14" fill="white"/>
</clipPath>
</defs>
</svg>
